%YAML 1.1
%TAG !u! tag:unity3d.com,2011:
--- !u!1 &4429849957120384041
GameObject:
  m_ObjectHideFlags: 0
  m_CorrespondingSourceObject: {fileID: 0}
  m_PrefabInstance: {fileID: 0}
  m_PrefabAsset: {fileID: 0}
  serializedVersion: 6
  m_Component:
  - component: {fileID: 9090384242396936283}
  - component: {fileID: 4972909441349853079}
  - component: {fileID: 8123026154202718511}
  m_Layer: 0
  m_Name: Glock18
  m_TagString: Untagged
  m_Icon: {fileID: 0}
  m_NavMeshLayer: 0
  m_StaticEditorFlags: 0
  m_IsActive: 1
--- !u!4 &9090384242396936283
Transform:
  m_ObjectHideFlags: 0
  m_CorrespondingSourceObject: {fileID: 0}
  m_PrefabInstance: {fileID: 0}
  m_PrefabAsset: {fileID: 0}
  m_GameObject: {fileID: 4429849957120384041}
  m_LocalRotation: {x: 0, y: 0, z: 0, w: 1}
  m_LocalPosition: {x: 0, y: 0, z: 0}
  m_LocalScale: {x: 1, y: 1, z: 1}
  m_ConstrainProportionsScale: 0
  m_Children: []
  m_Father: {fileID: 0}
  m_RootOrder: 0
  m_LocalEulerAnglesHint: {x: 0, y: 0, z: 0}
--- !u!114 &4972909441349853079
MonoBehaviour:
  m_ObjectHideFlags: 0
  m_CorrespondingSourceObject: {fileID: 0}
  m_PrefabInstance: {fileID: 0}
  m_PrefabAsset: {fileID: 0}
  m_GameObject: {fileID: 4429849957120384041}
  m_Enabled: 1
  m_EditorHideFlags: 0
  m_Script: {fileID: 11500000, guid: 9b7a137b30aaa8b409119a9f8fd84627, type: 3}
  m_Name: 
  m_EditorClassIdentifier: 
  syncMode: 0
  syncInterval: 0.1
  Weapon: 1
  PositionSpr: {x: 0, y: 1.4}
  NameWeapon: Glock18
  MaxClip: 20
  Clip: 20
  MaxAmmo: 200
  Ammo: 200
  MaxRecoil: 3
  FireSpeed: 0.18
  SpeedBullet: 10
  ReloadTime: 2.5
  MinDmg: 3
  MaxDmg: 15
  HSDmg: 50
  Knockback: 175
  WeaponSpr: {fileID: 21300000, guid: d199ba1d2757e3c448b613583090aa14, type: 3}
  FireClip: {fileID: 8300000, guid: 640969686cb9e874494bcf0503f265a0, type: 3}
  DrawClip: {fileID: 8300000, guid: 864ff33b69f21594db256da69e79dd91, type: 3}
  ReloadClips:
  - {fileID: 8300000, guid: 04ca8ffa2b208e74eaebcbb8a32be025, type: 3}
  - {fileID: 8300000, guid: 23b22b1edc3d8c446a00c7aa66fae1d9, type: 3}
  KnifeMissClips: []
  KnifeStrikeClips: []
--- !u!114 &8123026154202718511
MonoBehaviour:
  m_ObjectHideFlags: 0
  m_CorrespondingSourceObject: {fileID: 0}
  m_PrefabInstance: {fileID: 0}
  m_PrefabAsset: {fileID: 0}
  m_GameObject: {fileID: 4429849957120384041}
  m_Enabled: 1
  m_EditorHideFlags: 0
  m_Script: {fileID: 11500000, guid: 9b91ecbcc199f4492b9a91e820070131, type: 3}
  m_Name: 
  m_EditorClassIdentifier: 
  sceneId: 0
  serverOnly: 0
  visible: 0
  m_AssetId: e8b49093992b89f4792d13e3c69a81a6
  hasSpawned: 0
